
(1) This one is the most standard module.exports = function() {} style

[ { comment:
     '/**\n * @param {number} param1 parameter one\n * @param {number} [param2=10] parameter two\n * @param {number} [param3] optional param3\n * @param {number=} param4 optional param4\n * @return {number} sum of both\n */',
    meta:
     { range: [ 242, 385 ],
       filename: 'epd5i4rycpc94r711ca79h.js',
       lineno: 9,
       columnno: 0,
       path: '/tmp',
       code:
        { id: 'astnode100000003',
          name: 'module.exports',
          type: 'FunctionExpression',
          value: 'getSomething',
          paramnames: [ 'param1', 'param2', 'param3', 'param4' ] } },
    params:
     [ { type: { names: [ 'number' ] },
         description: 'parameter one',
         name: 'param1' },
       { type: { names: [ 'number' ] },
         optional: true,
         defaultvalue: 10,
         description: 'parameter two',
         name: 'param2' },
       { type: { names: [ 'number' ] },
         optional: true,
         description: 'optional param3',
         name: 'param3' },
       { type: { names: [ 'number' ] },
         optional: true,
         description: 'optional param4',
         name: 'param4' } ],
    returns:
     [ { type: { names: [ 'number' ] }, description: 'sum of both' } ],
    name: 'exports',
    longname: 'module.exports',
    kind: 'function',
    memberof: 'module',
    scope: 'static' },
  { kind: 'package',
    longname: 'package:undefined',
    files: [ '/tmp/epd5i4rycpc94r711ca79h.js' ] } ]

(2) this one is with a separate function then use module.exports = fnName style

[ { comment: '',
    meta:
     { range: [ 121, 139 ],
       filename: 'nd9dimemcgpi8tch8w51as.js',
       lineno: 3,
       columnno: 6,
       path: '/tmp',
       code:
        { id: 'astnode100000003',
          name: 'DEFAULT_VALUE',
          type: 'Literal',
          value: 10 } },
    undocumented: true,
    name: 'DEFAULT_VALUE',
    longname: 'DEFAULT_VALUE',
    kind: 'constant',
    scope: 'global',
    params: [] },
  { comment: '',
    meta:
     { range: [ 142, 180 ],
       filename: 'nd9dimemcgpi8tch8w51as.js',
       lineno: 5,
       columnno: 0,
       path: '/tmp',
       code:
        { id: 'astnode100000006',
          name: 'sum',
          type: 'FunctionDeclaration',
          paramnames: [ 'a', 'b' ] } },
    undocumented: true,
    name: 'sum',
    longname: 'sum',
    kind: 'function',
    scope: 'global',
    params: [] },
  { comment:
     '/**\n * @param {number} param1 first\n * @param {number} [param2=10] second\n * @return {number} sum of both\n */',
    meta:
     { range: [ 298, 391 ],
       filename: 'nd9dimemcgpi8tch8w51as.js',
       lineno: 14,
       columnno: 6,
       path: '/tmp',
       code:
        { id: 'astnode100000016',
          name: 'getSomethingElse',
          type: 'FunctionExpression' } },
    params:
     [ { type: { names: [ 'number' ] },
         description: 'first',
         name: 'param1' },
       { type: { names: [ 'number' ] },
         optional: true,
         defaultvalue: 10,
         description: 'second',
         name: 'param2' } ],
    returns:
     [ { type: { names: [ 'number' ] }, description: 'sum of both' } ],
    name: 'getSomethingElse',
    longname: 'getSomethingElse',
    kind: 'function',
    scope: 'global' },
  { comment: '',
    meta:
     { range: [ 393, 426 ],
       filename: 'nd9dimemcgpi8tch8w51as.js',
       lineno: 18,
       columnno: 0,
       path: '/tmp',
       code:
        { id: 'astnode100000030',
          name: 'module.exports',
          type: 'Identifier',
          value: 'getSomethingElse',
          paramnames: [] } },
    undocumented: true,
    name: 'exports',
    longname: 'module.exports',
    kind: 'member',
    memberof: 'module',
    scope: 'static' },
  { kind: 'package',
    longname: 'package:undefined',
    files: [ '/tmp/nd9dimemcgpi8tch8w51as.js' ] } ]

(3) this one is the object with keys

[ { comment:
     '/**\n * @param {object} payload\n * @param {string} payload.key the payload key\n * @param {number} payload.update the date time object\n * @param {object} conditions\n * @param {number} conditions.id the id\n * @return {boolean} true on success\n */',
    meta:
     { range: [ 303, 368 ],
       filename: 'jldtu3fztg7ifmbxw7c9k.js',
       lineno: 10,
       columnno: 0,
       path: '/tmp',
       code:
        { id: 'astnode100000003',
          name: 'module.exports',
          type: 'FunctionExpression',
          paramnames: [ 'payload', 'conditions' ] } },
    params:
     [ { type: { names: [ 'object' ] }, name: 'payload' },
       { type: { names: [ 'string' ] },
         description: 'the payload key',
         name: 'payload.key' },
       { type: { names: [ 'number' ] },
         description: 'the date time object',
         name: 'payload.update' },
       { type: { names: [ 'object' ] }, name: 'conditions' },
       { type: { names: [ 'number' ] },
         description: 'the id',
         name: 'conditions.id' } ],
    returns:
     [ { type: { names: [ 'boolean' ] },
         description: 'true on success' } ],
    name: 'exports',
    longname: 'module.exports',
    kind: 'function',
    memberof: 'module',
    scope: 'static' },
  { kind: 'package',
    longname: 'package:undefined',
    files: [ '/tmp/jldtu3fztg7ifmbxw7c9k.js' ] } ]
